name,duration_ms,popularity,num_markets,album,disc_number,is_explicit,track_number,release_date,artist,danceability,energy,key,loudness,mode,speechiness,acousticness,instrumentalness,liveness,valence,tempo,time_signature
Hell Or Hallelujah,247280,44,161,Monster,1,False,1,2012-01-01,KISS,0.271,0.987,6,-2.135,1,0.069,0.00585,3.66e-06,0.321,0.417,83.097,4
Wall Of Sound,175386,35,161,Monster,1,False,2,2012-01-01,KISS,0.198,0.984,1,-4.209,1,0.0774,0.00264,0.00366,0.359,0.414,172.663,4
Freak,215120,34,161,Monster,1,False,3,2012-01-01,KISS,0.368,0.953,3,-3.07,0,0.0597,0.0469,0.0,0.0684,0.447,91.392,4
Back To The Stone Age,181146,33,161,Monster,1,False,4,2012-01-01,KISS,0.406,0.977,5,-3.718,0,0.0946,0.00132,3.85e-05,0.15,0.286,130.913,4
Shout Mercy,244320,32,161,Monster,1,False,5,2012-01-01,KISS,0.401,0.983,1,-2.503,1,0.0604,0.0141,5.11e-05,0.151,0.399,130.417,4
Long Way Down,230973,30,161,Monster,1,False,6,2012-01-01,KISS,0.152,0.979,8,-3.437,1,0.0847,0.00446,5.33e-05,0.279,0.292,172.421,4
Eat Your Heart Out,246173,31,161,Monster,1,False,7,2012-01-01,KISS,0.353,0.915,8,-3.576,1,0.0717,0.0182,0.0,0.12,0.479,126.992,4
The Devil Is Me,220893,31,161,Monster,1,False,8,2012-01-01,KISS,0.34,0.973,8,-2.868,1,0.0586,0.0018,3.8e-06,0.0884,0.319,91.196,4
Outta This World,269000,31,161,Monster,1,False,9,2012-01-01,KISS,0.411,0.967,8,-2.917,1,0.0549,0.00399,0.0,0.338,0.551,124.893,4
All For The Love Of Rock & Roll,201373,32,161,Monster,1,False,10,2012-01-01,KISS,0.455,0.96,8,-4.022,1,0.0538,0.0324,0.0,0.342,0.574,116.863,4
Take Me Down Below,204306,31,161,Monster,1,False,11,2012-01-01,KISS,0.478,0.978,1,-3.319,1,0.0577,0.0196,0.0,0.29,0.438,127.959,4
Last Chance,185653,29,161,Monster,1,False,12,2012-01-01,KISS,0.319,0.968,6,-2.397,1,0.0927,0.00813,0.0,0.14,0.365,130.653,4
Deuce - Live,254373,30,177,Symphony: Alive IV,1,False,1,2003-07-22,KISS,0.215,0.97,6,-5.474,0,0.155,0.000225,0.567,0.961,0.189,131.44,4
Strutter - Live,202213,30,177,Symphony: Alive IV,1,False,2,2003-07-22,KISS,0.323,0.985,10,-5.151,0,0.153,0.00038,0.262,0.993,0.283,135.488,4
"Let Me Go, Rock 'n' Roll - Live",369066,29,177,Symphony: Alive IV,1,False,3,2003-07-22,KISS,0.27,0.975,1,-5.991,1,0.164,0.000461,0.127,0.98,0.23,145.492,4
Lick It Up - Live,312586,33,177,Symphony: Alive IV,1,False,4,2003-07-22,KISS,0.29,0.959,1,-6.003,1,0.151,0.0148,0.543,0.947,0.184,132.047,4
Calling Dr. Love - Live,210493,29,177,Symphony: Alive IV,1,False,5,2003-07-22,KISS,0.266,0.962,8,-5.232,1,0.164,0.00655,0.00278,0.944,0.155,135.154,4
Psycho Circus - Live,312866,30,177,Symphony: Alive IV,1,False,6,2003-07-22,KISS,0.294,0.971,10,-5.241,0,0.104,0.000153,0.881,0.713,0.196,130.203,4
Beth - Live,220746,29,177,Symphony: Alive IV,1,False,7,2003-07-22,KISS,0.235,0.41,0,-10.908,1,0.032,0.307,0.00052,0.986,0.205,99.788,4
Forever - Live,230386,36,177,Symphony: Alive IV,1,False,8,2003-07-22,KISS,0.557,0.822,4,-5.013,1,0.0326,0.0454,0.0,0.941,0.367,87.294,4
Goin' Blind - Live,218253,27,177,Symphony: Alive IV,1,False,9,2003-07-22,KISS,0.361,0.818,10,-5.61,0,0.0644,0.00401,3.38e-06,0.984,0.507,74.344,4
Sure Know Something - Live,260266,31,177,Symphony: Alive IV,1,False,10,2003-07-22,KISS,0.572,0.818,3,-5.331,0,0.0381,0.0199,3.27e-05,0.943,0.754,113.436,4
Shandi - Live,219040,29,177,Symphony: Alive IV,1,False,11,2003-07-22,KISS,0.471,0.827,4,-5.256,1,0.0375,0.0189,2.1e-06,0.993,0.387,102.961,4
Detroit Rock City - Live,289933,32,177,Symphony: Alive IV,2,False,1,2003-07-22,KISS,0.169,0.955,0,-4.741,0,0.106,0.00549,0.856,0.79,0.254,172.105,4
King of the Night Time World - Live,210253,25,177,Symphony: Alive IV,2,False,2,2003-07-22,KISS,0.29,0.973,6,-4.162,1,0.119,0.0249,0.835,0.877,0.122,137.337,4
Do You Love Me - Live,250080,26,177,Symphony: Alive IV,2,False,3,2003-07-22,KISS,0.368,0.954,8,-4.509,1,0.0864,0.0152,0.524,0.978,0.403,127.222,4
Shout It Out Loud - Live,249800,27,177,Symphony: Alive IV,2,False,4,2003-07-22,KISS,0.266,0.981,8,-4.224,1,0.127,0.13,0.666,0.976,0.208,135.157,3
God of Thunder - Live,266986,30,177,Symphony: Alive IV,2,False,5,2003-07-22,KISS,0.287,0.906,8,-4.804,1,0.05,0.00155,0.406,0.718,0.341,97.964,4
Love Gun - Live,265560,31,177,Symphony: Alive IV,2,False,6,2003-07-22,KISS,0.268,0.968,11,-4.283,1,0.0729,0.00458,0.668,0.942,0.271,75.319,4
Black Diamond - Live,431213,28,177,Symphony: Alive IV,2,False,7,2003-07-22,KISS,0.225,0.921,1,-5.648,1,0.128,0.0172,0.408,0.991,0.0797,133.333,4
Great Expectations - Live,259720,24,177,Symphony: Alive IV,2,False,8,2003-07-22,KISS,0.353,0.752,1,-5.352,1,0.0446,0.054,0.0261,0.907,0.26,112.605,4
I Was Made for Lovin' You - Live,299586,35,177,Symphony: Alive IV,2,False,9,2003-07-22,KISS,0.31,0.927,8,-5.027,1,0.109,0.00511,0.818,0.821,0.278,127.951,4
Rock and Roll All Nite - Live,441546,31,177,Symphony: Alive IV,2,False,10,2003-07-22,KISS,0.31,0.987,1,-5.141,1,0.129,0.027,0.0844,0.996,0.107,138.922,4
Psycho Circus,330360,49,176,Psycho Circus,1,False,1,1998-01-01,KISS,0.556,0.929,1,-5.055,1,0.0637,7.36e-05,0.38,0.237,0.44,121.48,4
Within,310666,32,176,Psycho Circus,1,False,2,1998-01-01,KISS,0.517,0.766,2,-5.362,1,0.0348,3.87e-05,0.174,0.103,0.335,108.104,4
I Pledge Allegiance To The State Of Rock & Roll,212800,30,176,Psycho Circus,1,False,3,1998-01-01,KISS,0.497,0.988,2,-1.804,1,0.0702,0.00238,1.74e-06,0.334,0.506,130.341,4
Into The Void,262466,31,176,Psycho Circus,1,False,4,1998-01-01,KISS,0.485,0.972,8,-2.784,1,0.045,6.65e-05,0.113,0.305,0.678,131.754,4
We Are One,281373,50,176,Psycho Circus,1,False,5,1998-01-01,KISS,0.507,0.873,5,-4.683,0,0.0432,0.00561,1.27e-06,0.268,0.362,89.137,4
You Wanted The Best,255026,30,176,Psycho Circus,1,False,6,1998-01-01,KISS,0.498,0.968,1,-3.188,1,0.181,0.00111,0.000279,0.0748,0.616,158.485,4
Raise Your Glasses,255840,30,176,Psycho Circus,1,False,7,1998-01-01,KISS,0.642,0.89,1,-2.931,1,0.0399,0.00415,0.0,0.0903,0.833,115.249,4
I Finally Found My Way,220160,28,176,Psycho Circus,1,False,8,1998-01-01,KISS,0.502,0.421,7,-7.401,1,0.0322,0.469,1.42e-06,0.0992,0.197,133.301,4
Dreamin',252933,31,176,Psycho Circus,1,False,9,1998-01-01,KISS,0.384,0.856,1,-2.996,0,0.0386,0.000607,0.0217,0.124,0.429,173.772,4
"Journey Of 1,000 Years",287373,29,176,Psycho Circus,1,False,10,1998-01-01,KISS,0.403,0.875,4,-4.211,0,0.037,2.08e-05,0.00871,0.185,0.21,97.568,4
Hate,277533,26,173,Carnival Of Souls,1,False,1,1997-10-28,KISS,0.283,0.947,1,-7.301,0,0.0801,0.00403,0.0018,0.289,0.31,95.344,4
Rain,286760,26,173,Carnival Of Souls,1,False,2,1997-10-28,KISS,0.476,0.679,6,-6.451,1,0.0565,0.0196,0.00204,0.207,0.651,143.02,4
Master & Slave,297840,26,173,Carnival Of Souls,1,False,3,1997-10-28,KISS,0.669,0.675,6,-7.995,1,0.0486,0.0139,0.000835,0.085,0.688,124.097,4
Childhood's End,260760,24,173,Carnival Of Souls,1,False,4,1997-10-28,KISS,0.231,0.725,3,-7.116,1,0.0417,0.143,0.00945,0.069,0.445,175.726,4
I Will Be There,229306,37,173,Carnival Of Souls,1,False,5,1997-10-28,KISS,0.399,0.49,5,-10.601,1,0.031,0.511,1.21e-05,0.143,0.437,165.644,4
Jungle,409733,25,173,Carnival Of Souls,1,False,6,1997-10-28,KISS,0.546,0.874,7,-7.403,1,0.0489,0.00468,0.0988,0.224,0.637,91.897,4
In My Head,240533,22,173,Carnival Of Souls,1,False,7,1997-10-28,KISS,0.556,0.793,8,-6.32,1,0.0365,0.00745,1.84e-05,0.127,0.428,100.916,4
It Never Goes Away,342000,21,173,Carnival Of Souls,1,False,8,1997-10-28,KISS,0.414,0.703,8,-7.468,1,0.0368,0.0592,0.000321,0.099,0.0772,121.105,4
Seduction Of The Innocent,316266,21,173,Carnival Of Souls,1,False,9,1997-10-28,KISS,0.451,0.751,11,-7.275,1,0.0342,0.00304,0.0676,0.2,0.384,112.782,4
I Confess,323360,21,173,Carnival Of Souls,1,False,10,1997-10-28,KISS,0.416,0.566,8,-8.401,1,0.0295,0.151,0.000108,0.114,0.288,102.95,4
In The Mirror,266066,21,173,Carnival Of Souls,1,False,11,1997-10-28,KISS,0.425,0.882,1,-6.742,0,0.0582,0.00599,1.71e-05,0.1,0.766,127.584,4
I Walk Alone,368400,22,173,Carnival Of Souls,1,False,12,1997-10-28,KISS,0.466,0.674,6,-9.76,1,0.0374,0.00529,0.0974,0.0784,0.138,107.474,4
Comin' Home - Live,171853,36,175,MTV Unplugged,1,False,1,1996-01-01,KISS,0.586,0.962,6,-5.061,1,0.0454,0.0232,0.00104,0.967,0.784,132.168,4
Plaster Caster - Live,197973,34,175,MTV Unplugged,1,False,2,1996-01-01,KISS,0.605,0.979,1,-4.189,1,0.0444,0.163,1.16e-05,0.906,0.562,138.166,4
Goin' Blind - Live,207600,36,175,MTV Unplugged,1,False,3,1996-01-01,KISS,0.503,0.917,10,-4.506,0,0.0383,0.0796,2.56e-05,0.889,0.738,141.668,4
Do You Love Me - Live,198213,36,175,MTV Unplugged,1,False,4,1996-01-01,KISS,0.731,0.937,8,-4.463,1,0.0524,0.103,0.0,0.941,0.723,126.286,4
Domino - Live,228106,35,175,MTV Unplugged,1,False,5,1996-01-01,KISS,0.62,0.933,1,-4.842,1,0.0454,0.0847,0.000471,0.893,0.824,140.025,4
Sure Know Something - Live,256000,42,175,MTV Unplugged,1,False,6,1996-01-01,KISS,0.716,0.851,3,-4.689,0,0.0381,0.128,0.0,0.963,0.805,113.812,4
A World Without Heroes - Live,177786,33,175,MTV Unplugged,1,False,7,1996-01-01,KISS,0.592,0.633,8,-8.239,1,0.0468,0.516,0.000331,0.957,0.367,112.89,4
Rock Bottom - Live,200426,33,174,MTV Unplugged,1,False,8,1996-01-01,KISS,0.648,0.922,8,-4.546,0,0.0595,0.292,0.0,0.471,0.513,127.395,4
See You Tonight - Live,149720,35,175,MTV Unplugged,1,False,9,1996-01-01,KISS,0.632,0.87,1,-4.796,1,0.0302,0.227,0.0,0.967,0.743,122.319,4
I Still Love You - Live,369733,39,175,MTV Unplugged,1,False,10,1996-01-01,KISS,0.435,0.753,3,-4.731,0,0.0359,0.25,2.65e-06,0.861,0.233,150.359,3
Every Time I Look At You - Live,283800,45,175,MTV Unplugged,1,False,11,1996-01-01,KISS,0.361,0.571,8,-5.476,1,0.0355,0.438,0.0,0.836,0.392,149.041,4
"2,000 Man - Live",312653,34,175,MTV Unplugged,1,False,12,1996-01-01,KISS,0.557,0.929,8,-4.426,1,0.0328,0.0701,0.0,0.904,0.703,130.666,4
Beth - Live,175013,42,175,MTV Unplugged,1,False,13,1996-01-01,KISS,0.566,0.556,11,-10.259,1,0.0311,0.613,1.56e-05,0.978,0.483,114.975,4
Nothin' To Lose - Live,221906,34,175,MTV Unplugged,1,False,14,1996-01-01,KISS,0.649,0.966,8,-5.196,1,0.0628,0.161,0.0,0.98,0.762,130.855,4
Rock 'N' Roll All Nite - Live,259079,50,175,MTV Unplugged,1,False,15,1996-01-01,KISS,0.613,0.988,8,-5.023,1,0.0841,0.0765,0.0,0.98,0.546,137.429,4
Creatures Of The Night - Live/1992,279906,25,172,Alive III,1,False,1,1993-01-01,KISS,0.338,0.959,2,-7.541,1,0.116,0.000199,0.783,0.583,0.0791,130.104,4
Deuce - Live/1992,221982,24,172,Alive III,1,False,2,1993-01-01,KISS,0.344,0.986,1,-6.605,1,0.122,1.3e-05,0.0187,0.986,0.248,132.914,4
I Just Wanna - Live/1992,261333,23,172,Alive III,1,False,3,1993-01-01,KISS,0.493,0.931,8,-6.253,1,0.121,0.00406,0.224,0.36,0.507,130.985,4
Unholy - Live/1992,223329,22,172,Alive III,1,False,4,1993-01-01,KISS,0.449,0.956,8,-6.768,0,0.0561,7.03e-05,0.193,0.971,0.381,123.116,4
Heaven's On Fire - Live/1992,241533,24,172,Alive III,1,False,5,1993-01-01,KISS,0.488,0.926,11,-7.206,1,0.0685,4.52e-05,0.345,0.942,0.243,129.957,4
Watchin' You - Live/1992,215133,20,172,Alive III,1,False,6,1993-01-01,KISS,0.258,0.928,1,-7.458,0,0.0604,1.2e-05,0.0734,0.694,0.274,102.072,4
Domino - Live/1992,226893,23,172,Alive III,1,False,7,1993-01-01,KISS,0.428,0.843,1,-7.402,1,0.0715,5.12e-05,0.287,0.649,0.593,141.471,4
I Was Made For Lovin' You - Live/1992,270666,32,172,Alive III,1,False,8,1993-01-01,KISS,0.48,0.966,8,-6.695,1,0.0711,0.00104,0.87,0.989,0.405,129.578,4
I Still Love You - Live/1992,364240,20,172,Alive III,1,False,9,1993-01-01,KISS,0.258,0.854,8,-6.229,1,0.0591,0.00158,0.0361,0.976,0.235,144.852,3
Rock And Roll All Nite - Live/1992,212560,26,172,Alive III,1,False,10,1993-01-01,KISS,0.325,0.986,1,-6.225,1,0.133,0.00023,0.0283,0.656,0.201,151.488,4
Lick It Up - Live/1992,257573,24,172,Alive III,1,False,11,1993-01-01,KISS,0.39,0.91,1,-6.565,1,0.0499,7.04e-05,0.0691,0.975,0.462,131.959,4
Forever - Live/1992,230893,23,172,Alive III,1,False,12,1993-01-01,KISS,0.324,0.899,6,-6.753,1,0.0451,0.00679,0.00214,0.526,0.266,176.039,4
I Love It Loud - Live/1992,218733,24,172,Alive III,1,False,13,1993-01-01,KISS,0.463,0.99,8,-5.96,1,0.0747,0.00121,1.57e-06,0.773,0.11,90.239,4
Detroit Rock City - Live/1992,305840,26,172,Alive III,1,False,14,1993-01-01,KISS,0.391,0.967,8,-7.101,1,0.125,3.53e-05,0.78,0.986,0.195,89.511,4
God Gave Rock 'N' Roll To You II - Live/1992,328066,27,172,Alive III,1,False,15,1993-01-01,KISS,0.339,0.884,11,-6.434,1,0.0817,0.00639,0.000794,0.98,0.227,73.084,4
"Star Spangled Banner - ""Alive III"" Version",158400,21,172,Alive III,1,False,16,1993-01-01,KISS,0.135,0.927,3,-4.585,1,0.0779,9.14e-05,0.943,0.98,0.215,85.112,5
Unholy,222200,43,172,Revenge,1,False,1,1992-01-01,KISS,0.563,0.851,4,-7.874,1,0.0428,0.0129,5.24e-05,0.0793,0.596,118.961,4
Take It Off,290560,34,172,Revenge,1,False,2,1992-01-01,KISS,0.575,0.932,0,-6.844,1,0.0527,0.0193,3.5e-05,0.395,0.627,124.82,4
Tough Love,224226,28,172,Revenge,1,False,3,1992-01-01,KISS,0.565,0.82,0,-7.231,0,0.0428,0.0114,3.01e-05,0.0857,0.574,100.726,4
Spit,213373,29,172,Revenge,1,False,4,1992-01-01,KISS,0.354,0.852,1,-6.291,1,0.174,0.0987,6.13e-06,0.365,0.461,92.46,4
God Gave Rock 'N' Roll To You II,320226,55,172,Revenge,1,False,5,1992-01-01,KISS,0.444,0.735,4,-9.74,1,0.0526,0.112,0.0,0.637,0.347,145.244,4
Domino,240493,47,172,Revenge,1,False,6,1992-01-01,KISS,0.649,0.726,2,-8.112,1,0.112,0.0221,0.000435,0.122,0.439,137.112,4
Heart Of Chrome,243133,29,172,Revenge,1,False,7,1992-01-01,KISS,0.552,0.815,1,-7.454,1,0.031,0.0149,0.00111,0.108,0.689,105.661,4
Thou Shalt Not,237520,28,172,Revenge,1,False,8,1992-01-01,KISS,0.568,0.915,8,-6.856,1,0.0582,0.0065,0.00119,0.0863,0.68,126.91,4
Every Time I Look At You,279066,53,172,Revenge,1,False,9,1992-01-01,KISS,0.521,0.324,8,-10.979,1,0.0329,0.218,0.0,0.0618,0.257,144.065,4
Paralyzed,255066,26,172,Revenge,1,False,10,1992-01-01,KISS,0.651,0.68,9,-7.514,1,0.0455,0.0235,3.3e-05,0.0796,0.692,96.793,4
I Just Wanna,246133,33,172,Revenge,1,False,11,1992-01-01,KISS,0.611,0.94,8,-5.211,1,0.0934,0.171,0.000116,0.213,0.616,128.354,4
Carr Jam 1981,164840,27,172,Revenge,1,False,12,1992-01-01,KISS,0.424,0.779,1,-10.233,1,0.0675,0.000112,0.843,0.0909,0.368,104.545,4
Rise To It,244226,41,173,Hot In The Shade,1,False,1,1989-01-01,KISS,0.551,0.888,0,-10.916,1,0.0537,0.338,0.00277,0.317,0.287,130.667,4
Betrayed,220000,25,173,Hot In The Shade,1,False,2,1989-01-01,KISS,0.486,0.911,9,-12.365,0,0.0416,0.00431,0.0296,0.189,0.464,130.309,4
Hide Your Heart,264133,41,173,Hot In The Shade,1,False,3,1989-01-01,KISS,0.572,0.846,11,-10.081,0,0.0617,0.306,1.31e-05,0.169,0.596,122.384,4
Prisoner Of Love,224293,26,173,Hot In The Shade,1,False,4,1989-01-01,KISS,0.306,0.917,4,-10.633,1,0.0706,0.081,0.000191,0.284,0.235,135.396,4
Read My Body,229106,25,173,Hot In The Shade,1,False,5,1989-01-01,KISS,0.559,0.751,4,-10.612,1,0.0413,0.0739,0.00089,0.169,0.549,89.127,4
Love's A Slap In The Face,243760,24,173,Hot In The Shade,1,False,6,1989-01-01,KISS,0.597,0.741,1,-10.744,0,0.03,0.107,1.32e-05,0.12,0.897,112.286,4
Forever,232640,64,173,Hot In The Shade,1,False,7,1989-01-01,KISS,0.435,0.666,6,-10.596,1,0.031,0.254,1.4e-05,0.0541,0.566,176.431,4
Silver Spoon,281626,28,173,Hot In The Shade,1,False,8,1989-01-01,KISS,0.526,0.822,11,-10.666,1,0.0384,0.0771,0.137,0.145,0.667,128.247,4
Cadillac Dreams,226666,24,173,Hot In The Shade,1,False,9,1989-01-01,KISS,0.409,0.875,7,-11.21,1,0.0402,0.0162,0.000154,0.0673,0.687,196.139,4
King Of Hearts,265933,27,173,Hot In The Shade,1,False,10,1989-01-01,KISS,0.491,0.919,7,-9.44,1,0.0578,0.154,0.0114,0.0915,0.497,137.471,4
The Street Giveth And The Street Taketh Away,209986,23,173,Hot In The Shade,1,False,11,1989-01-01,KISS,0.518,0.933,0,-10.164,1,0.055,0.139,2.9e-05,0.283,0.359,130.49,4
You Love Me To Hate You,242866,26,173,Hot In The Shade,1,False,12,1989-01-01,KISS,0.562,0.874,5,-9.366,0,0.0577,0.394,0.00777,0.0973,0.428,119.328,4
Somewhere Between Heaven And Hell,227400,24,173,Hot In The Shade,1,False,13,1989-01-01,KISS,0.607,0.821,9,-10.366,1,0.0288,0.418,0.0,0.0569,0.661,107.165,4
Little Caesar,190400,24,173,Hot In The Shade,1,False,14,1989-01-01,KISS,0.478,0.851,9,-11.631,1,0.0493,0.0884,0.0,0.67,0.515,94.229,4
Boomerang,211826,21,173,Hot In The Shade,1,False,15,1989-01-01,KISS,0.437,0.965,9,-11.094,1,0.0659,4.42e-05,0.0105,0.51,0.198,126.737,4
Crazy Crazy Nights,227600,61,162,Crazy Nights,1,False,1,1987-09-18,KISS,0.591,0.87,7,-6.381,1,0.0652,0.409,0.0,0.718,0.747,121.682,4
I'll Fight Hell To Hold You,249333,32,162,Crazy Nights,1,False,2,1987-09-18,KISS,0.475,0.955,8,-5.692,0,0.0846,0.361,0.00133,0.352,0.334,132.271,4
Bang Bang You,233133,28,162,Crazy Nights,1,False,3,1987-09-18,KISS,0.62,0.927,9,-7.162,1,0.0551,0.463,0.0,0.564,0.508,121.942,4
No No No,257693,28,162,Crazy Nights,1,False,4,1987-09-18,KISS,0.482,0.991,4,-5.597,0,0.122,0.112,0.00433,0.268,0.0394,121.658,4
Hell Or High Water,207066,28,162,Crazy Nights,1,False,5,1987-09-18,KISS,0.57,0.939,5,-7.177,0,0.0701,0.155,0.0,0.633,0.538,117.322,4
My Way,239600,30,162,Crazy Nights,1,False,6,1987-09-18,KISS,0.515,0.94,7,-6.695,0,0.084,0.373,0.0066,0.343,0.629,128.908,4
When Your Walls Come Down,203666,26,162,Crazy Nights,1,False,7,1987-09-18,KISS,0.559,0.976,2,-6.182,1,0.0591,0.833,0.0168,0.676,0.335,135.935,4
Reason To Live,240266,49,162,Crazy Nights,1,False,8,1987-09-18,KISS,0.497,0.692,5,-7.071,1,0.032,0.579,1.98e-05,0.0828,0.48,92.94,4
Good Girl Gone Bad,275000,29,162,Crazy Nights,1,False,9,1987-09-18,KISS,0.549,0.899,4,-6.611,0,0.06,0.108,1.95e-05,0.195,0.711,121.667,4
Turn On The Night,198466,36,162,Crazy Nights,1,False,10,1987-09-18,KISS,0.521,0.965,8,-6.777,1,0.0702,0.564,2.12e-06,0.285,0.626,130.712,4
Thief In The Night,246866,27,162,Crazy Nights,1,False,11,1987-09-18,KISS,0.509,0.92,4,-6.046,0,0.0384,0.515,2.06e-06,0.341,0.441,90.678,4
King Of The Mountain,260160,30,172,Asylum,1,False,1,1985-09-16,KISS,0.459,0.953,9,-6.796,0,0.126,0.0226,0.000544,0.192,0.169,142.711,4
Any Way You Slice It,243106,26,172,Asylum,1,False,2,1985-09-16,KISS,0.451,0.966,2,-6.125,1,0.132,0.0895,3.27e-05,0.182,0.418,158.988,4
Who Wants To Be Lonely,242293,41,172,Asylum,1,False,3,1985-09-16,KISS,0.523,0.989,4,-6.306,0,0.195,0.0655,0.0188,0.551,0.0559,105.573,4
Trial By Fire,206333,26,172,Asylum,1,False,4,1985-09-16,KISS,0.634,0.721,2,-7.207,1,0.0384,0.0779,0.0,0.572,0.681,120.945,4
I'm Alive,226106,25,172,Asylum,1,False,5,1985-09-16,KISS,0.496,0.961,6,-7.229,0,0.17,0.00219,0.00149,0.534,0.109,123.056,4
Love's A Deadly Weapon,211666,25,172,Asylum,1,False,6,1985-09-16,KISS,0.462,0.945,9,-7.037,1,0.0909,0.000209,0.0222,0.513,0.11,132.93,4
Tears Are Falling,235933,47,172,Asylum,1,False,7,1985-09-16,KISS,0.535,0.917,1,-7.698,1,0.0903,0.00332,1.29e-06,0.102,0.266,124.318,4
Secretly Cruel,224226,25,172,Asylum,1,False,8,1985-09-16,KISS,0.566,0.979,4,-6.776,0,0.0907,0.313,0.00241,0.354,0.272,124.154,4
Radar For Love,241066,24,172,Asylum,1,False,9,1985-09-16,KISS,0.254,0.949,9,-7.404,1,0.195,0.229,0.207,0.36,0.271,132.546,3
Uh! All Night,243800,41,172,Asylum,1,False,10,1985-09-16,KISS,0.59,0.911,1,-8.333,1,0.0359,0.0534,0.00116,0.212,0.467,111.612,4
I've Had Enough (Into The Fire),231866,35,162,Animalize,1,False,1,1984-09-13,KISS,0.472,0.947,9,-5.506,1,0.203,0.00386,0.137,0.3,0.323,142.073,4
Heaven's On Fire,201400,67,162,Animalize,1,False,2,1984-09-13,KISS,0.679,0.866,0,-6.053,1,0.0635,0.00376,3.1e-05,0.312,0.785,124.324,4
Burn Bitch Burn,282733,34,162,Animalize,1,False,3,1984-09-13,KISS,0.388,0.943,1,-6.439,1,0.082,0.00431,0.0107,0.35,0.431,177.077,4
Get All You Can Take,224066,30,162,Animalize,1,False,4,1984-09-13,KISS,0.481,0.92,2,-5.027,1,0.0905,0.0437,0.00275,0.457,0.49,95.497,4
Lonely Is The Hunter,268026,30,162,Animalize,1,False,5,1984-09-13,KISS,0.599,0.865,9,-6.007,1,0.0464,0.0517,2.43e-06,0.248,0.533,110.92,1
Under The Gun,241600,31,162,Animalize,1,False,6,1984-09-13,KISS,0.515,0.967,4,-5.127,0,0.176,0.00168,0.156,0.57,0.0833,119.875,4
Thrills In The Night,261426,44,162,Animalize,1,False,7,1984-09-13,KISS,0.539,0.809,3,-6.153,1,0.0656,0.139,0.0,0.473,0.488,116.255,4
While The City Sleeps,221440,28,162,Animalize,1,False,8,1984-09-13,KISS,0.544,0.921,4,-5.819,1,0.0793,0.00369,0.0,0.366,0.415,129.783,4
Murder In High-Heels,232933,28,162,Animalize,1,False,9,1984-09-13,KISS,0.366,0.894,11,-5.576,0,0.0913,0.00317,0.000884,0.24,0.543,177.308,4
Exciter,252226,31,173,Lick It Up,1,False,1,1983-09-18,KISS,0.523,0.934,9,-6.394,1,0.0972,0.00413,0.00107,0.284,0.439,126.912,4
Not For The Innocent,263666,29,173,Lick It Up,1,False,2,1983-09-18,KISS,0.568,0.874,9,-6.059,1,0.0382,0.121,0.293,0.258,0.405,111.199,4
Lick It Up,236640,63,173,Lick It Up,1,False,3,1983-09-18,KISS,0.681,0.773,2,-6.051,1,0.058,0.181,1.84e-05,0.311,0.547,120.276,4
Young And Wasted,246466,30,173,Lick It Up,1,False,4,1983-09-18,KISS,0.512,0.947,9,-5.919,1,0.146,0.00127,0.001,0.108,0.324,125.6,4
Gimme More,224493,27,173,Lick It Up,1,False,5,1983-09-18,KISS,0.501,0.97,2,-5.297,1,0.128,0.0491,1.58e-06,0.206,0.289,123.895,4
All Hell's Breakin' Loose,274573,37,173,Lick It Up,1,False,6,1983-09-18,KISS,0.586,0.899,0,-6.815,1,0.0404,0.0327,0.000103,0.429,0.703,92.953,4
A Million To One,251000,41,173,Lick It Up,1,False,7,1983-09-18,KISS,0.542,0.876,9,-5.853,1,0.0727,0.0256,3.29e-05,0.189,0.583,117.31,4
Fits Like A Glove,244360,29,173,Lick It Up,1,False,8,1983-09-18,KISS,0.317,0.951,9,-5.1,1,0.12,0.0208,0.00675,0.232,0.312,175.117,4
Dance All Over Your Face,256373,27,173,Lick It Up,1,False,9,1983-09-18,KISS,0.58,0.863,2,-7.306,1,0.03,0.0201,1.25e-06,0.449,0.725,90.152,4
And On The 8th Day,243826,27,173,Lick It Up,1,False,10,1983-09-18,KISS,0.539,0.851,9,-8.058,1,0.0454,0.00363,0.0163,0.094,0.584,118.015,4
Creatures Of The Night,243400,45,162,Creatures Of The Night,1,False,1,1982-10-13,KISS,0.549,0.976,7,-6.611,0,0.0913,0.00101,0.00985,0.131,0.078,121.626,4
Saint And Sinner,290426,32,162,Creatures Of The Night,1,False,2,1982-10-13,KISS,0.59,0.978,9,-5.938,1,0.0783,0.0265,7.63e-06,0.353,0.287,127.206,4
Keep Me Comin',235666,31,162,Creatures Of The Night,1,False,3,1982-10-13,KISS,0.45,0.969,2,-3.61,1,0.0652,0.124,1.71e-05,0.315,0.302,96.155,4
Rock And Roll Hell,252933,33,162,Creatures Of The Night,1,False,4,1982-10-13,KISS,0.444,0.802,2,-5.649,1,0.0549,0.0206,1.52e-05,0.441,0.46,173.312,4
Danger,236173,31,162,Creatures Of The Night,1,False,5,1982-10-13,KISS,0.256,0.984,4,-3.981,0,0.157,0.00167,2.81e-05,0.336,0.0588,147.117,4
I Love It Loud,255426,59,162,Creatures Of The Night,1,False,6,1982-10-13,KISS,0.414,0.897,5,-6.406,0,0.0538,0.000402,1.85e-06,0.0809,0.263,170.916,4
I Still Love You,366106,50,162,Creatures Of The Night,1,False,7,1982-10-13,KISS,0.428,0.604,4,-7.407,0,0.0326,8.48e-05,0.00223,0.613,0.06,144.934,3
Killer,200026,30,162,Creatures Of The Night,1,False,8,1982-10-13,KISS,0.405,0.957,9,-5.262,1,0.124,0.00517,0.0,0.036,0.352,176.574,4
War Machine,254373,45,162,Creatures Of The Night,1,False,9,1982-10-13,KISS,0.561,0.951,8,-6.043,1,0.0522,0.00486,1.22e-05,0.124,0.621,116.059,4
Fanfare,82506,21,173,"Music From ""The Elder""",1,False,1,1981-11-16,KISS,0.228,0.101,11,-18.395,1,0.0349,0.96,0.657,0.147,0.171,75.832,4
Just A Boy,145066,25,173,"Music From ""The Elder""",1,False,2,1981-11-16,KISS,0.497,0.422,8,-9.384,1,0.0296,0.0756,0.0,0.363,0.162,102.127,4
Odyssey,336866,23,173,"Music From ""The Elder""",1,False,3,1981-11-16,KISS,0.425,0.547,1,-7.551,1,0.0257,0.155,0.000213,0.104,0.118,86.66,4
Only You,257133,24,173,"Music From ""The Elder""",1,False,4,1981-11-16,KISS,0.633,0.727,9,-6.555,1,0.0655,0.0234,0.00608,0.337,0.457,126.019,4
Under The Rose,291666,25,173,"Music From ""The Elder""",1,False,5,1981-11-16,KISS,0.478,0.613,7,-8.846,1,0.0276,0.00697,0.000634,0.199,0.379,142.667,3
Dark Light,258893,24,173,"Music From ""The Elder""",1,False,6,1981-11-16,KISS,0.635,0.834,7,-7.58,1,0.0475,0.029,4.98e-05,0.113,0.312,112.897,4
A World Without Heroes,160666,29,173,"Music From ""The Elder""",1,False,7,1981-11-16,KISS,0.588,0.361,4,-9.475,0,0.0313,0.572,4.76e-06,0.132,0.395,115.311,4
The Oath,271466,27,173,"Music From ""The Elder""",1,False,8,1981-11-16,KISS,0.573,0.905,11,-4.833,1,0.108,0.11,0.00248,0.106,0.266,129.547,3
Mr. Blackwell,292773,22,173,"Music From ""The Elder""",1,False,9,1981-11-16,KISS,0.754,0.44,9,-9.383,1,0.0842,0.0352,1.06e-05,0.118,0.666,111.278,4
Escape From The Island,172000,21,173,"Music From ""The Elder""",1,False,10,1981-11-16,KISS,0.621,0.945,11,-7.994,0,0.0567,0.000111,0.841,0.33,0.701,114.581,4
I,303666,26,173,"Music From ""The Elder""",1,False,11,1981-11-16,KISS,0.627,0.771,11,-7.516,1,0.12,0.112,3.62e-05,0.191,0.351,148.857,4
Fanfare,82506,16,178,"Music From ""The Elder"" (Remastered Version)",1,False,1,1981-11-16,KISS,0.254,0.101,11,-18.395,1,0.0336,0.96,0.657,0.147,0.173,77.449,4
Just A Boy,145066,19,178,"Music From ""The Elder"" (Remastered Version)",1,False,2,1981-11-16,KISS,0.497,0.427,8,-9.383,1,0.0297,0.0718,0.0,0.363,0.17,102.128,4
Odyssey,336866,18,178,"Music From ""The Elder"" (Remastered Version)",1,False,3,1981-11-16,KISS,0.424,0.548,1,-7.552,1,0.0261,0.154,0.000225,0.104,0.133,87.533,4
Only You,257133,18,178,"Music From ""The Elder"" (Remastered Version)",1,False,4,1981-11-16,KISS,0.634,0.726,9,-6.555,1,0.0522,0.0238,0.00616,0.337,0.469,126.021,4
Under The Rose,291666,18,178,"Music From ""The Elder"" (Remastered Version)",1,False,5,1981-11-16,KISS,0.478,0.613,7,-8.846,1,0.0276,0.00697,0.000633,0.199,0.379,142.67,3
Dark Light,258893,17,178,"Music From ""The Elder"" (Remastered Version)",1,False,6,1981-11-16,KISS,0.635,0.834,7,-7.58,1,0.0476,0.0292,4.91e-05,0.113,0.321,112.898,4
A World Without Heroes,160666,19,178,"Music From ""The Elder"" (Remastered Version)",1,False,7,1981-11-16,KISS,0.588,0.361,4,-9.475,0,0.0314,0.577,4.76e-06,0.132,0.396,115.311,4
The Oath,271466,38,178,"Music From ""The Elder"" (Remastered Version)",1,False,8,1981-11-16,KISS,0.573,0.905,11,-4.833,1,0.108,0.109,0.00253,0.106,0.265,129.535,3
Mr. Blackwell,292773,16,178,"Music From ""The Elder"" (Remastered Version)",1,False,9,1981-11-16,KISS,0.754,0.44,9,-9.384,1,0.0841,0.0351,1.15e-05,0.118,0.647,111.271,4
Escape From The Island,172000,15,178,"Music From ""The Elder"" (Remastered Version)",1,False,10,1981-11-16,KISS,0.621,0.945,11,-7.994,0,0.0568,0.000111,0.841,0.33,0.701,114.581,4
I,303666,18,178,"Music From ""The Elder"" (Remastered Version)",1,False,11,1981-11-16,KISS,0.627,0.771,11,-7.516,1,0.12,0.113,3.55e-05,0.191,0.351,148.855,4
Is That You?,239293,34,172,Unmasked,1,False,1,1980-05-20,KISS,0.631,0.911,9,-6.444,1,0.0571,0.029,0.000196,0.0829,0.547,116.01,4
Shandi,216866,47,172,Unmasked,1,False,2,1980-05-20,KISS,0.533,0.771,4,-6.512,1,0.028,0.0883,0.0,0.0428,0.853,103.262,4
Talk To Me,242866,33,172,Unmasked,1,False,3,1980-05-20,KISS,0.532,0.926,4,-6.026,1,0.0947,0.0712,0.0,0.0711,0.542,129.593,4
Naked City,232106,33,172,Unmasked,1,False,4,1980-05-20,KISS,0.538,0.821,4,-5.515,0,0.028,0.0721,1.04e-05,0.138,0.719,120.402,4
What Makes The World Go Round,255360,29,172,Unmasked,1,False,5,1980-05-20,KISS,0.602,0.931,9,-6.084,0,0.0488,0.37,9.45e-05,0.0632,0.814,129.595,4
Tomorrow,197933,32,172,Unmasked,1,False,6,1980-05-20,KISS,0.568,0.889,4,-4.994,1,0.074,0.245,0.0,0.0885,0.888,146.41,4
Two Sides Of The Coin,196640,29,172,Unmasked,1,False,7,1980-05-20,KISS,0.561,0.902,6,-6.729,1,0.0424,0.0462,0.000366,0.169,0.798,131.572,4
She's So European,212400,29,172,Unmasked,1,False,8,1980-05-20,KISS,0.553,0.908,9,-5.84,1,0.0378,0.0446,7.5e-05,0.323,0.789,136.725,4
Easy As It Seems,205600,28,172,Unmasked,1,False,9,1980-05-20,KISS,0.573,0.907,1,-6.932,1,0.0472,0.0532,0.00128,0.0354,0.966,135.707,4
Torpedo Girl,225360,28,172,Unmasked,1,False,10,1980-05-20,KISS,0.599,0.924,9,-7.623,1,0.0454,0.0124,7.09e-06,0.174,0.808,113.549,4
You're All That I Want,185106,25,172,Unmasked,1,False,11,1980-05-20,KISS,0.578,0.903,2,-6.213,1,0.0406,0.209,5e-06,0.14,0.707,126.685,4
I Was Made For Lovin' You,271240,80,173,Dynasty,1,False,1,1979-03-23,KISS,0.768,0.852,4,-6.215,1,0.038,0.214,7.36e-05,0.0723,0.867,128.373,4
"2,000 Man",295386,44,173,Dynasty,1,False,2,1979-03-23,KISS,0.546,0.937,8,-6.025,1,0.0408,0.166,4.89e-06,0.312,0.82,134.065,4
Sure Know Something,241506,55,173,Dynasty,1,False,3,1979-03-23,KISS,0.707,0.732,4,-6.292,0,0.0303,0.277,0.0,0.13,0.928,115.338,4
Dirty Livin',267933,39,173,Dynasty,1,False,4,1979-03-23,KISS,0.674,0.95,3,-5.833,1,0.0431,0.3,0.0135,0.303,0.864,127.092,4
Charisma,265933,49,173,Dynasty,1,False,5,1979-03-23,KISS,0.582,0.89,8,-6.285,0,0.119,0.0803,1.7e-05,0.202,0.731,131.43,4
Magic Touch,282226,40,173,Dynasty,1,False,6,1979-03-23,KISS,0.593,0.859,3,-5.816,0,0.039,0.25,1.43e-06,0.118,0.781,111.548,4
Hard Times,211240,36,173,Dynasty,1,False,7,1979-03-23,KISS,0.717,0.937,1,-3.703,1,0.0478,0.332,1.59e-05,0.0716,0.838,136.84,4
X-Ray Eyes,226333,36,173,Dynasty,1,False,8,1979-03-23,KISS,0.557,0.833,4,-6.479,1,0.0311,0.255,2.5e-06,0.11,0.691,130.098,4
Save Your Love,280666,36,173,Dynasty,1,False,9,1979-03-23,KISS,0.48,0.953,1,-5.345,1,0.0706,0.227,8.83e-05,0.444,0.562,140.37,4
"Detroit Rock City - Live At The Forum, Los Angeles/1977",237560,37,177,Alive II (Live),1,False,1,1977-10-14,KISS,0.289,0.987,0,-5.955,0,0.116,0.0519,0.429,0.371,0.158,187.809,4
"King Of The Night Time World - Live At The Forum, Los Angeles/1977",185440,29,177,Alive II (Live),1,False,2,1977-10-14,KISS,0.355,0.968,6,-5.776,1,0.18,0.161,0.618,0.567,0.172,143.286,4
"Ladies Room - Live At The Forum, Los Angeles/1977",194466,28,177,Alive II (Live),1,False,3,1977-10-14,KISS,0.465,0.98,1,-8.093,1,0.218,0.0181,0.000287,0.981,0.179,141.831,4
"Makin' Love - Live At The Forum, Los Angeles/1977",193026,29,177,Alive II (Live),1,False,4,1977-10-14,KISS,0.217,0.956,9,-4.878,1,0.137,0.00534,0.13,0.928,0.375,169.45,4
"Love Gun - Live At The Forum, Los Angeles/1977",220840,31,177,Alive II (Live),1,False,5,1977-10-14,KISS,0.271,0.937,3,-6.286,0,0.0649,0.0871,0.766,0.969,0.333,151.395,4
"Calling Dr. Love - Live At The Forum, Los Angeles/1977",215933,30,177,Alive II (Live),1,False,6,1977-10-14,KISS,0.386,0.986,8,-5.724,1,0.23,0.0924,0.274,0.976,0.234,135.185,4
"Christine Sixteen - Live At The Forum, Los Angeles/1977",165626,27,177,Alive II (Live),1,False,7,1977-10-14,KISS,0.404,0.973,8,-5.35,1,0.135,0.129,0.421,0.913,0.3,132.635,4
"Shock Me - Live At The Forum, Los Angeles/1977",351400,30,177,Alive II (Live),1,False,8,1977-10-14,KISS,0.348,0.956,1,-7.011,1,0.141,0.173,0.179,0.968,0.27,128.978,4
"Hard Luck Woman - Live At The Forum, Los Angeles/1977",186666,29,177,Alive II (Live),1,False,9,1977-10-14,KISS,0.471,0.914,11,-6.483,1,0.0668,0.36,0.0,0.952,0.6,126.962,4
"Tomorrow And Tonight - Live At The Forum, Los Angeles/1977",206106,25,177,Alive II (Live),1,False,10,1977-10-14,KISS,0.441,0.992,11,-4.867,1,0.237,0.728,0.0477,0.969,0.34,140.436,4
"I Stole Your Love - Live At The Forum, Los Angeles/1977",216293,28,177,Alive II (Live),2,False,1,1977-10-14,KISS,0.212,0.995,8,-4.714,1,0.261,0.419,0.424,0.972,0.147,187.893,4
"Beth - Live At The Forum, Los Angeles/1977",144000,26,177,Alive II (Live),2,False,2,1977-10-14,KISS,0.274,0.71,0,-9.966,1,0.0736,0.838,0.00792,0.978,0.403,116.126,4
"God Of Thunder - Live At The Forum, Los Angeles/1977",316506,29,177,Alive II (Live),2,False,3,1977-10-14,KISS,0.333,0.991,3,-5.659,0,0.184,0.0228,0.385,0.969,0.0679,121.813,4
"I Want You - Live At The Forum, Los Angeles/1977",254600,28,177,Alive II (Live),2,False,4,1977-10-14,KISS,0.295,0.96,10,-5.948,0,0.23,0.351,0.217,0.964,0.194,100.339,4
"Shout It Out Loud - Live At The Forum, Los Angeles/1977",219293,33,177,Alive II (Live),2,False,5,1977-10-14,KISS,0.453,0.994,3,-4.162,1,0.388,0.653,4.72e-05,0.971,0.166,144.71,4
"All American Man - Live At Capitol Theatre, New Jersey / 1977",193266,27,177,Alive II (Live),2,False,6,1977-10-14,KISS,0.416,0.922,1,-5.74,1,0.112,0.11,0.00719,0.274,0.451,141.104,4
"Rockin' In The U.S.A. - Live At Capitol Theatre, New Jersey / 1977",156240,25,177,Alive II (Live),2,False,7,1977-10-14,KISS,0.411,0.911,8,-6.413,1,0.083,0.781,0.0,0.0595,0.698,147.993,4
"Larger Than Life - Live At Capitol Theatre, New Jersey / 1977",240066,27,177,Alive II (Live),2,False,8,1977-10-14,KISS,0.494,0.811,1,-6.435,1,0.0423,0.248,2.08e-05,0.392,0.618,84.67,4
Rocket Ride,248240,39,177,Alive II (Live),2,False,9,1977-10-14,KISS,0.458,0.888,10,-5.856,1,0.0593,0.0234,5.12e-06,0.24,0.606,145.236,4
Any Way You Want It,153826,25,177,Alive II (Live),2,False,10,1977-10-14,KISS,0.487,0.94,8,-5.333,1,0.0564,0.543,0.0,0.212,0.215,143.365,4
I Stole Your Love,184666,33,160,Love Gun (Deluxe Edition),1,False,1,1977-06-30,KISS,0.296,0.965,5,-6.303,1,0.167,0.00258,7.94e-05,0.857,0.593,192.754,4
Christine Sixteen,192520,32,160,Love Gun (Deluxe Edition),1,False,2,1977-06-30,KISS,0.643,0.866,1,-7.666,1,0.0412,0.0858,4.49e-05,0.0934,0.92,125.869,4
Got Love For Sale,208213,27,160,Love Gun (Deluxe Edition),1,False,3,1977-06-30,KISS,0.527,0.898,1,-6.784,1,0.0579,0.00769,0.000163,0.0459,0.833,151.744,4
Shock Me,226720,31,160,Love Gun (Deluxe Edition),1,False,4,1977-06-30,KISS,0.633,0.821,1,-7.275,1,0.0729,0.0163,0.000424,0.0517,0.857,127.257,4
Tomorrow And Tonight,220826,29,160,Love Gun (Deluxe Edition),1,False,5,1977-06-30,KISS,0.604,0.961,0,-5.871,1,0.0694,0.117,2.91e-05,0.36,0.745,135.162,4
Love Gun,196933,39,160,Love Gun (Deluxe Edition),1,False,6,1977-06-30,KISS,0.397,0.848,3,-6.322,0,0.035,0.01,0.208,0.0848,0.722,147.388,4
Hooligan,180320,27,160,Love Gun (Deluxe Edition),1,False,7,1977-06-30,KISS,0.626,0.877,9,-7.272,1,0.0587,0.0098,0.00226,0.178,0.812,131.231,4
Almost Human,168866,26,160,Love Gun (Deluxe Edition),1,False,8,1977-06-30,KISS,0.294,0.938,1,-8.096,1,0.0618,0.00252,0.00119,0.234,0.706,184.315,4
Plaster Caster,207626,28,160,Love Gun (Deluxe Edition),1,False,9,1977-06-30,KISS,0.462,0.901,1,-8.052,1,0.104,0.0234,0.0,0.0603,0.544,137.162,4
Then She Kissed Me,181093,28,160,Love Gun (Deluxe Edition),1,False,10,1977-06-30,KISS,0.581,0.866,1,-6.736,1,0.0349,0.00155,0.0,0.068,0.566,126.402,4
Much Too Soon - Demo,203626,21,160,Love Gun (Deluxe Edition),1,False,11,1977-06-30,KISS,0.49,0.515,0,-7.476,1,0.0241,0.0453,0.00472,0.342,0.546,86.971,4
Plaster Caster - Demo,215720,20,160,Love Gun (Deluxe Edition),1,False,12,1977-06-30,KISS,0.512,0.722,2,-8.81,1,0.0393,0.383,2.03e-05,0.111,0.607,135.187,4
Reputation - Demo,339146,19,160,Love Gun (Deluxe Edition),1,False,13,1977-06-30,KISS,0.582,0.934,9,-5.622,1,0.0552,0.0605,0.0,0.232,0.847,129.5,4
Love Gun - Teaching Demo,134080,18,160,Love Gun (Deluxe Edition),1,False,14,1977-06-30,KISS,0.575,0.185,8,-14.24,0,0.0573,0.301,0.000798,0.122,0.357,118.909,4
Love Gun - Demo,198826,20,160,Love Gun (Deluxe Edition),1,False,15,1977-06-30,KISS,0.287,0.912,3,-6.257,0,0.109,0.181,0.447,0.5,0.32,147.47,4
Gene Simmons Interview - 1977,419613,16,160,Love Gun (Deluxe Edition),1,False,16,1977-06-30,KISS,0.575,0.614,11,-17.183,0,0.946,0.98,1.5e-05,0.471,0.603,82.488,3
Tomorrow And Tonight - Demo,226680,16,160,Love Gun (Deluxe Edition),1,False,17,1977-06-30,KISS,0.638,0.946,0,-7.443,1,0.0395,0.0099,0.766,0.348,0.862,134.934,4
I Know Who You Are - Demo,189613,16,160,Love Gun (Deluxe Edition),1,False,18,1977-06-30,KISS,0.693,0.825,9,-7.49,1,0.0378,0.0654,0.00428,0.0327,0.62,117.635,4
Love Gun - Live/1977,214226,18,160,Love Gun (Deluxe Edition),1,False,19,1977-06-30,KISS,0.206,0.97,8,-7.852,1,0.064,0.0351,0.000173,0.971,0.292,78.225,4
Christine Sixteen - Live/1977,175560,16,160,Love Gun (Deluxe Edition),1,False,20,1977-06-30,KISS,0.269,0.924,8,-9.03,1,0.0632,0.00569,0.00347,0.853,0.463,142.613,4
Shock Me - Live/1977,501106,19,160,Love Gun (Deluxe Edition),1,False,21,1977-06-30,KISS,0.164,0.907,1,-9.339,1,0.0956,0.0876,0.554,0.959,0.23,137.277,4
I Stole Your Love,184960,44,172,Love Gun,1,False,1,1977-06-30,KISS,0.317,0.972,5,-6.302,1,0.144,0.0319,0.00101,0.938,0.49,193.173,4
Christine Sixteen,194466,34,172,Love Gun,1,False,2,1977-06-30,KISS,0.661,0.903,8,-7.25,1,0.0496,0.118,3.25e-05,0.102,0.927,125.72,4
Got Love For Sale,208400,21,172,Love Gun,1,False,3,1977-06-30,KISS,0.544,0.923,1,-6.377,1,0.0563,0.124,1.26e-05,0.0876,0.779,151.478,4
Shock Me,226773,46,172,Love Gun,1,False,4,1977-06-30,KISS,0.655,0.812,1,-7.779,1,0.0678,0.0383,0.000645,0.0238,0.866,127.092,4
Tomorrow And Tonight,218800,23,172,Love Gun,1,False,5,1977-06-30,KISS,0.629,0.976,0,-5.721,1,0.0647,0.467,1.07e-05,0.415,0.61,135.051,4
Love Gun,198706,60,172,Love Gun,1,False,6,1977-06-30,KISS,0.409,0.868,3,-6.236,0,0.0368,0.0266,0.0357,0.276,0.704,147.211,4
Hooligan,179426,25,172,Love Gun,1,False,7,1977-06-30,KISS,0.655,0.925,9,-6.313,1,0.0644,0.112,0.00412,0.326,0.705,131.208,4
Almost Human,167333,24,172,Love Gun,1,False,8,1977-06-30,KISS,0.312,0.949,1,-7.267,1,0.0879,0.012,0.000861,0.816,0.682,184.29,4
Plaster Caster,208026,40,172,Love Gun,1,False,9,1977-06-30,KISS,0.493,0.93,1,-7.11,1,0.107,0.109,0.0,0.0825,0.498,137.013,4
Then She Kissed Me,182506,28,172,Love Gun,1,False,10,1977-06-30,KISS,0.6,0.865,1,-5.18,1,0.0325,0.0142,4.04e-06,0.0469,0.873,126.356,4
I Want You,185333,37,172,Rock And Roll Over,1,False,1,1976-11-11,KISS,0.457,0.892,3,-6.14,0,0.106,0.529,2.24e-06,0.0354,0.465,98.935,4
Take Me,176226,40,172,Rock And Roll Over,1,False,2,1976-11-11,KISS,0.631,0.906,11,-6.821,1,0.0625,0.603,2.4e-06,0.871,0.741,136.054,4
Calling Dr. Love,224666,53,172,Rock And Roll Over,1,False,3,1976-11-11,KISS,0.544,0.884,8,-8.166,1,0.144,0.663,7.26e-06,0.381,0.467,127.215,4
Ladies Room,208000,32,172,Rock And Roll Over,1,False,4,1976-11-11,KISS,0.574,0.773,8,-6.913,1,0.0537,0.618,0.0,0.125,0.744,128.83,4
Baby Driver,220306,30,172,Rock And Roll Over,1,False,5,1976-11-11,KISS,0.509,0.893,1,-6.831,0,0.0703,0.325,2.36e-06,0.154,0.814,126.583,4
Love 'Em And Leave 'Em,226933,30,172,Rock And Roll Over,1,False,6,1976-11-11,KISS,0.55,0.712,8,-7.191,1,0.0709,0.478,0.0,0.0557,0.668,133.987,4
Mr. Speed,198493,35,172,Rock And Roll Over,1,False,7,1976-11-11,KISS,0.728,0.919,4,-6.285,1,0.141,0.727,0.0398,0.468,0.733,132.636,4
See You In Your Dreams,154600,28,172,Rock And Roll Over,1,False,8,1976-11-11,KISS,0.528,0.887,1,-7.139,1,0.0858,0.238,2.27e-05,0.186,0.52,143.777,4
Hard Luck Woman,214666,54,172,Rock And Roll Over,1,False,9,1976-11-11,KISS,0.668,0.867,11,-7.594,1,0.033,0.666,0.0,0.22,0.963,124.613,4
Makin' Love,194733,32,172,Rock And Roll Over,1,False,10,1976-11-11,KISS,0.34,0.957,9,-6.176,1,0.202,0.53,1.46e-06,0.0378,0.39,171.75,4
Detroit Rock City,318200,51,173,Destroyer,1,False,1,1976-03-15,KISS,0.466,0.922,0,-7.847,0,0.157,0.0871,0.000838,0.69,0.201,91.122,4
King Of The Night Time World,199000,38,173,Destroyer,1,False,2,1976-03-15,KISS,0.404,0.958,11,-4.483,1,0.108,0.0238,0.00137,0.334,0.176,137.771,4
God Of Thunder,253840,50,173,Destroyer,1,False,3,1976-03-15,KISS,0.414,0.878,11,-6.157,1,0.0378,0.272,0.000332,0.456,0.438,99.804,4
Great Expectations,264800,34,173,Destroyer,1,False,4,1976-03-15,KISS,0.489,0.675,3,-7.474,1,0.0359,0.535,7.56e-06,0.165,0.386,114.535,4
Flaming Youth,178933,42,173,Destroyer,1,False,5,1976-03-15,KISS,0.557,0.862,6,-7.892,1,0.0582,0.109,2.11e-06,0.0529,0.655,129.719,4
Sweet Pain,200453,33,173,Destroyer,1,False,6,1976-03-15,KISS,0.422,0.877,11,-7.748,1,0.0934,0.0441,0.0,0.414,0.501,131.64,4
Shout It Out Loud,169026,51,173,Destroyer,1,False,7,1976-03-15,KISS,0.571,0.953,3,-5.002,1,0.0568,0.124,5.57e-06,0.35,0.682,135.599,4
Beth,165666,61,173,Destroyer,1,False,8,1976-03-15,KISS,0.387,0.238,0,-13.496,1,0.0339,0.878,0.000715,0.194,0.279,115.354,4
Do You Love Me,213000,45,173,Destroyer,1,False,9,1976-03-15,KISS,0.457,0.915,3,-5.876,1,0.0808,0.0623,3.48e-06,0.0778,0.446,126.695,4
Rock And Roll Party,85333,30,173,Destroyer,1,False,10,1976-03-15,KISS,0.174,0.43,3,-25.17,0,0.0515,0.951,0.936,0.93,0.0242,91.827,5
Detroit Rock City - 2012 Remix,315693,35,172,Destroyer (Resurrected),1,False,1,1976-03-15,KISS,0.426,0.957,0,-8.028,0,0.192,0.0159,0.0157,0.836,0.122,91.08,4
King Of The Night Time World - 2012 Remix,199040,25,172,Destroyer (Resurrected),1,False,2,1976-03-15,KISS,0.341,0.959,1,-4.651,0,0.132,0.00412,4.33e-05,0.334,0.204,138.052,4
God Of Thunder - 2012 Remix,253480,33,172,Destroyer (Resurrected),1,False,3,1976-03-15,KISS,0.304,0.882,1,-6.132,0,0.0421,0.0045,5.34e-05,0.426,0.591,99.334,4
Great Expectations - 2012 Remix,262373,21,172,Destroyer (Resurrected),1,False,4,1976-03-15,KISS,0.446,0.668,3,-7.084,1,0.0351,0.186,4.18e-05,0.367,0.499,114.052,4
Flaming Youth - 2012 Remix,177653,23,172,Destroyer (Resurrected),1,False,5,1976-03-15,KISS,0.504,0.931,1,-6.748,1,0.0929,0.0626,0.0,0.0584,0.654,130.171,4
Sweet Pain - 2012 Remix,199440,22,172,Destroyer (Resurrected),1,False,6,1976-03-15,KISS,0.374,0.936,1,-5.742,0,0.121,0.0593,0.0,0.312,0.441,131.562,4
Shout It Out Loud - 2012 Remix,168026,31,172,Destroyer (Resurrected),1,False,7,1976-03-15,KISS,0.53,0.934,8,-4.315,1,0.0731,0.0751,0.0,0.456,0.731,135.654,4
Beth - 2012 Remix,166346,28,172,Destroyer (Resurrected),1,False,8,1976-03-15,KISS,0.399,0.371,0,-11.378,1,0.0319,0.505,0.000589,0.209,0.317,116.032,4
Do You Love Me - 2012 Remix,212306,25,172,Destroyer (Resurrected),1,False,9,1976-03-15,KISS,0.375,0.866,10,-5.277,0,0.0644,0.00463,0.000837,0.0815,0.358,126.696,4
Rock And Roll Party - 2012 Remix,84413,18,172,Destroyer (Resurrected),1,False,10,1976-03-15,KISS,0.17,0.513,3,-25.009,0,0.071,0.947,0.959,0.967,0.0239,119.694,3
Sweet Pain - Original Guitar Solo,198866,18,172,Destroyer (Resurrected),1,False,11,1976-03-15,KISS,0.39,0.899,1,-7.567,0,0.11,0.064,0.0,0.179,0.493,131.472,4
Deuce - Live/1975,236600,35,173,Alive!,1,False,1,1975-09-10,KISS,0.325,0.988,6,-6.273,1,0.112,0.0586,0.532,0.939,0.241,131.069,4
Strutter - Live/1975,202306,34,173,Alive!,1,False,2,1975-09-10,KISS,0.421,0.946,10,-7.44,0,0.0591,0.0798,0.322,0.996,0.759,133.484,4
Got To Choose - Live/1975,237958,32,173,Alive!,1,False,3,1975-09-10,KISS,0.365,0.946,6,-7.079,1,0.108,0.415,0.00177,0.976,0.31,121.288,4
Hotter Than Hell - Live/1975,192933,32,173,Alive!,1,False,4,1975-09-10,KISS,0.481,0.96,1,-6.364,1,0.151,0.209,0.00382,0.459,0.281,116.06,4
Firehouse - Live/1975,239000,32,173,Alive!,1,False,5,1975-09-10,KISS,0.341,0.954,1,-5.632,1,0.117,0.204,0.0111,0.98,0.364,124.477,4
Nothin' To Lose - Live/1975,218093,30,173,Alive!,1,False,6,1975-09-10,KISS,0.451,0.954,8,-5.925,1,0.178,0.157,0.000187,0.981,0.464,137.059,4
C'mon And Love Me - Live/1975,185066,30,173,Alive!,1,False,7,1975-09-10,KISS,0.387,0.976,0,-5.268,0,0.132,0.207,0.0348,0.992,0.241,133.706,4
Parasite - Live/1975,215240,31,173,Alive!,1,False,8,1975-09-10,KISS,0.363,0.94,11,-7.93,1,0.0882,0.0758,0.284,0.964,0.276,126.458,4
She - Live/1975,416000,29,173,Alive!,1,False,9,1975-09-10,KISS,0.249,0.954,1,-6.937,1,0.0916,0.12,0.597,0.97,0.343,78.868,4
Watchin' You - Live/1975,221200,28,173,Alive!,2,False,1,1975-09-10,KISS,0.421,0.92,11,-6.452,1,0.0492,0.205,0.145,0.51,0.468,101.567,4
"100,000 Years - Live/1975",720200,30,173,Alive!,2,False,2,1975-09-10,KISS,0.276,0.99,5,-7.465,0,0.159,0.00212,0.48,0.752,0.126,165.351,4
Black Diamond - Live/1975,350426,33,173,Alive!,2,False,3,1975-09-10,KISS,0.326,0.929,1,-6.48,1,0.105,0.153,0.144,0.918,0.198,133.292,4
Rock Bottom - Live/1975,217333,28,173,Alive!,2,False,4,1975-09-10,KISS,0.382,0.927,6,-6.158,1,0.165,0.71,0.0551,0.496,0.273,132.996,4
Cold Gin - Live/1975,325773,29,173,Alive!,2,False,5,1975-09-10,KISS,0.365,0.961,1,-5.63,1,0.113,0.296,0.00551,0.896,0.236,129.454,4
"Rock And Roll All Nite - Live From Detroit, MI/1975",247600,35,173,Alive!,2,False,6,1975-09-10,KISS,0.421,0.992,8,-6.515,1,0.181,0.359,0.00335,0.735,0.184,141.694,4
"Let Me Go, Rock 'N Roll - Live At Cobo Hall, Detroit, Michigan / 1975",345733,28,173,Alive!,2,False,7,1975-09-10,KISS,0.262,0.956,1,-5.767,1,0.0919,0.307,0.308,0.989,0.33,146.814,4
Room Service,181333,35,173,Dressed To Kill,1,False,1,1975-03-19,KISS,0.527,0.948,6,-5.325,1,0.0494,0.281,5.27e-05,0.224,0.842,153.395,4
Two Timer,168960,32,173,Dressed To Kill,1,False,2,1975-03-19,KISS,0.722,0.79,8,-6.771,1,0.0312,0.0219,0.0,0.179,0.961,117.246,4
Ladies In Waiting,153400,32,173,Dressed To Kill,1,False,3,1975-03-19,KISS,0.662,0.823,6,-4.497,1,0.038,0.107,0.00172,0.0566,0.849,133.612,4
Getaway,163773,33,173,Dressed To Kill,1,False,4,1975-03-19,KISS,0.515,0.792,1,-4.896,1,0.0572,0.115,6.32e-05,0.0601,0.95,161.332,4
Rock Bottom,235400,36,173,Dressed To Kill,1,False,5,1975-03-19,KISS,0.526,0.781,8,-6.929,0,0.0369,0.572,0.0114,0.0806,0.895,131.847,4
C'mon And Love Me,178200,44,173,Dressed To Kill,1,False,6,1975-03-19,KISS,0.712,0.848,0,-6.262,0,0.034,0.151,1.66e-05,0.155,0.832,130.779,4
Anything For My Baby,155666,33,173,Dressed To Kill,1,False,7,1975-03-19,KISS,0.65,0.929,10,-5.323,0,0.0686,0.15,7.54e-05,0.16,0.662,139.26,4
She,249000,38,173,Dressed To Kill,1,False,8,1975-03-19,KISS,0.448,0.701,1,-6.26,1,0.0472,0.34,0.000795,0.0569,0.954,82.509,4
Love Her All I Can,161360,33,173,Dressed To Kill,1,False,9,1975-03-19,KISS,0.643,0.912,6,-5.235,1,0.0812,0.363,0.012,0.0767,0.939,146.863,4
Rock And Roll All Nite,168840,76,173,Dressed To Kill,1,False,10,1975-03-19,KISS,0.654,0.929,1,-5.906,1,0.0998,0.0468,0.0,0.0539,0.902,144.774,4
Got To Choose,234666,33,162,Hotter Than Hell,1,False,1,1974-10-22,KISS,0.449,0.676,6,-6.453,1,0.0366,0.0737,0.0593,0.235,0.567,109.93,4
Parasite,182093,37,162,Hotter Than Hell,1,False,2,1974-10-22,KISS,0.391,0.736,11,-8.295,1,0.0493,0.00319,0.788,0.188,0.55,123.475,4
Goin' Blind,216733,42,162,Hotter Than Hell,1,False,3,1974-10-22,KISS,0.38,0.658,1,-6.978,1,0.034,0.0444,0.00726,0.183,0.641,138.023,4
Hotter Than Hell,211800,38,162,Hotter Than Hell,1,False,4,1974-10-22,KISS,0.426,0.588,1,-8.753,1,0.0606,0.00819,0.000315,0.0995,0.724,106.026,4
"Let Me Go, Rock 'N Roll",135706,34,162,Hotter Than Hell,1,False,5,1974-10-22,KISS,0.385,0.737,1,-8.332,1,0.0459,0.0342,0.527,0.0952,0.907,147.994,4
All The Way,198760,29,162,Hotter Than Hell,1,False,6,1974-10-22,KISS,0.483,0.746,1,-7.718,1,0.0525,0.117,0.00355,0.0853,0.9,127.67,4
Watchin' You,224173,31,162,Hotter Than Hell,1,False,7,1974-10-22,KISS,0.468,0.841,11,-6.379,1,0.0468,0.00415,0.379,0.175,0.646,100.572,4
Mainline,231106,31,162,Hotter Than Hell,1,False,8,1974-10-22,KISS,0.597,0.794,1,-7.998,1,0.0594,0.0811,0.000321,0.0698,0.905,124.239,4
Comin' Home,158160,29,162,Hotter Than Hell,1,False,9,1974-10-22,KISS,0.422,0.729,11,-8.576,1,0.0321,0.000246,0.237,0.0586,0.79,133.754,4
Strange Ways,199026,30,162,Hotter Than Hell,1,False,10,1974-10-22,KISS,0.531,0.615,9,-8.569,1,0.0354,0.0723,0.101,0.23,0.799,97.587,4
Strutter,190866,63,173,Kiss,1,False,1,1974-02-18,KISS,0.511,0.912,1,-5.618,1,0.0594,0.0247,0.0553,0.0943,0.833,131.339,4
Nothin' To Lose,207226,39,173,Kiss,1,False,2,1974-02-18,KISS,0.565,0.851,1,-6.301,1,0.0602,0.221,0.000541,0.0926,0.847,130.782,4
Firehouse,197333,39,173,Kiss,1,False,3,1974-02-18,KISS,0.642,0.663,1,-7.606,1,0.0572,0.159,0.028,0.13,0.808,116.489,4
Cold Gin,262973,48,173,Kiss,1,False,4,1974-02-18,KISS,0.512,0.754,1,-7.753,1,0.11,0.0523,0.0488,0.0881,0.662,117.588,4
Let Me Know,179560,35,173,Kiss,1,False,5,1974-02-18,KISS,0.446,0.782,8,-5.61,1,0.0499,0.276,9.38e-05,0.177,0.899,129.696,4
Kissin' Time,232573,33,173,Kiss,1,False,6,1974-02-18,KISS,0.489,0.841,6,-6.981,1,0.0723,0.036,9.12e-05,0.0995,0.926,122.93,4
Deuce,186200,49,173,Kiss,1,False,7,1974-02-18,KISS,0.44,0.879,6,-7.023,1,0.0728,0.00356,0.701,0.294,0.599,127.686,4
Love Theme From Kiss,144666,33,173,Kiss,1,False,8,1974-02-18,KISS,0.575,0.632,8,-10.892,1,0.0351,0.0377,0.879,0.329,0.698,77.414,4
"100,000 Years",202266,38,173,Kiss,1,False,9,1974-02-18,KISS,0.423,0.876,10,-6.985,0,0.0618,0.0244,0.282,0.15,0.727,103.585,4
Black Diamond,314026,47,173,Kiss,1,False,10,1974-02-18,KISS,0.354,0.62,8,-9.632,0,0.0557,0.0833,0.00797,0.0832,0.184,132.526,4
